{
    "elogic_car": {
        "column": {
            "car_id": true,
            "brand": true,
            "model": true,
            "year_production": true,
            "creation_time": true,
            "update_time": true
        },
        "constraint": {
            "PRIMARY": true
        }
    }
}